<svg xmlns="http://www.w3.org/2000/svg"
    height="24"
    width="24"
    viewBox = "0 0 24 24">
    <path
        d="M20 4H4c-1.1 0-2 .9-2 2v12c0 1.1.9 2 2 2h16c1.1 0 2-.9 2-2V6c0-1.1-.9-2-2-2zM9.5 16.5v-9l7 4.5-7 4.5z"
        fill="#E53935FF"/>
</svg>
